…
These are the curves that go into the PP-Plot, but occasionally can be
useful on their own.

## Estimation Methods

Compute effect sizes for all possible pairwise comparisons.

``` r
coh_d(benchmarks, math ~ season + frl)
#> # A tibble: 30 x 6
#>    season_ref frl_ref season_foc frl_foc  coh_d coh_se
#>    <chr>      <chr>   <chr>      <chr>    <dbl>  <dbl>
#>  1 Fall       FRL     Fall       Non-FRL  0.744 0.0706
#>  2 Fall       FRL     Spring     FRL      1.32  0.0496
#>  3 Fall       FRL     Spring     Non-FRL  2.01  0.0787
#>  4 Fall       FRL     Winter     FRL      0.625 0.0472
#>  5 Fall       FRL     Winter     Non-FRL  1.30  0.0733
#>  6 Fall       Non-FRL Fall       FRL     -0.744 0.0706
#>  7 Fall       Non-FRL Spring     FRL      0.550 0.0694
#>  8 Fall       Non-FRL Spring     Non-FRL  1.14  0.0919
#>  9 Fall       Non-FRL Winter     FRL     -0.127 0.0693
#> 10 Fall       Non-FRL Winter     Non-FRL  0.501 0.0872
#> # ... with 20 more rows
```
…
